…
为了使讨论更容易理解，让我们定义一些术语：

- **变量**是你可以测量的数量、品质或属性。
- **值**是你测量变量时的状态。变量的值可能会随着每次测量而变化。
- **观察**是在类似条件下进行的一组测量（通常你会同时在同一对象上的同一时间进行所有测量）。一个观察将包含几个值，每个值与不同的变量相关联。我们有时将观察称为数据点。
- **表格数据**是一组值，每个值与一个变量和一个观察相关联。如果每个值都放置在自己的“单元格”中，每个变量都放置在自己的列中，每个观察都放置在自己的行中，则表格数据是*整洁*的。

在这个语境中，变量指的是所有企鹅的属性，观察指的是单个企鹅的所有属性。

在控制台中键入数据框的名称，R 将打印其内容的预览。请注意，预览顶部显示为 tibble。在 tidyverse 中，我们使用称为 **tibble** 的特殊数据框，你很快将学到更多相关内容。

```R
penguins
#> # A tibble: 344 × 8
#>   species island    bill_length_mm bill_depth_mm flipper_length_mm
#>   <fct>   <fct>              <dbl>         <dbl>             <int>
#> 1 Adelie  Torgersen           39.1          18.7               181
#> 2 Adelie  Torgersen           39.5          17.4               186
#> 3 Adelie  Torgersen           40.3          18                 195
#> 4 Adelie  Torgersen           NA            NA                  NA
#> 5 Adelie  Torgersen           36.7          19.3               193
#> 6 Adelie  Torgersen           39.3          20.6               190
#> # ℹ 338 more rows
#> # ℹ 3 more variables: body_mass_g <int>, sex <fct>, year <int>
```
…
