…
请仔细注意加载 tidyverse 时打印的冲突消息。它告诉你 dplyr 覆盖了基础 R 中的一些函数。如果你想在加载 dplyr 后使用这些函数的基础版本，你需要使用它们的完整名称：stats::filter() 和 stats::lag()。到目前为止，我们大多忽略了函数来自哪个包，因为大多数情况下这并不重要。然而，知道函数来自哪个包可以帮助你找到帮助和相关函数，所以当我们需要准确指定函数来自哪个包时，我们将使用与 R 相同的语法：packagename::functionname()。

### nycflights13

为了探索基本的 dplyr 动词，我们将使用 nycflights13::flights。这个数据集包含了 2013 年从纽约市出发的所有 336,776 趟航班。数据来自[美国运输统计局](https://www.transtats.bts.gov/DL_SelectFields.aspx?gnoyr_VQ=FGJ&QO_fu146_anzr=b0-gvzr)，并在 ?flights 中有文档记录。

```R
flights
#> # A tibble: 336,776 × 19
#>    year month   day dep_time sched_dep_time dep_delay arr_time sched_arr_time
#>   <int> <int> <int>    <int>          <int>     <dbl>    <int>          <int>
#> 1  2013     1     1      517            515         2      830            819
#> 2  2013     1     1      533            529         4      850            830
#> 3  2013     1     1      542            540         2      923            850
#> 4  2013     1     1      544            545        -1     1004           1022
#> 5  2013     1     1      554            600        -6      812            837
#> 6  2013     1     1      554            558        -4      740            728
#> # ℹ 336,770 more rows
#> # ℹ 11 more variables: arr_delay <dbl>, carrier <chr>, flight <int>, …
```
…
dplyr 的动词根据它们操作的内容分为四组：**行**、**列**、**组**或**表**。在接下来的章节中，你将学习到行、列和分组的最重要的动词，然后我们将在第 19 章中回顾作用于表的连接动词。让我们开始吧！

## 行

操作数据集行的最重要的动词是 filter() 和 arrange()。filter() 根据列的值保留行，而 arrange() 则根据行的值对行进行排序。这两个函数只影响行，列保持不变。我们还会讨论 distinct()，它找到具有唯一值的行，但与 arrange() 和 filter() 不同，它还可以选择性地修改列。

### filter()

filter() 允许你根据列的值保留行。第一个参数是数据框。第二个及后续的参数是必须为真以保留行的条件。例如，我们可以找到所有出发晚于 120 分钟（两小时）的航班：

```R
flights |> 
  filter(dep_delay > 120)
#> # A tibble: 9,723 × 19
#>    year month   day dep_time sched_dep_time dep_delay arr_time sched_arr_time
#>   <int> <int> <int>    <int>          <int>     <dbl>    <int>          <int>
#> 1  2013     1     1      848           1835       853     1001           1950
#> 2  2013     1     1      957            733       144     1056            853
#> 3  2013     1     1     1114            900       134     1447           1222
#> 4  2013     1     1     1540           1338       122     2020           1825
#> 5  2013     1     1     1815           1325       290     2120           1542
#> 6  2013     1     1     1842           1422       260     1958           1535
#> # ℹ 9,717 more rows
#> # ℹ 11 more variables: arr_delay <dbl>, carrier <chr>, flight <int>, …
```

除了 >（大于）外，你还可以使用 >=（大于或等于）、<（小于）、<=（小于或等于）、==（等于）和 !=（不等于）等条件。你还可以使用 & 或 , 来组合条件，表示“和”（检查两个条件），或使用 | 表示“或”（检查任一条件）：

```R
# Flights that departed on January 1
flights |> 
  filter(month == 1 & day == 1)
#> # A tibble: 842 × 19
#>    year month   day dep_time sched_dep_time dep_delay arr_time sched_arr_time
#>   <int> <int> <int>    <int>          <int>     <dbl>    <int>          <int>
#> 1  2013     1     1      517            515         2      830            819
#> 2  2013     1     1      533            529         4      850            830
#> 3  2013     1     1      542            540         2      923            850
#> 4  2013     1     1      544            545        -1     1004           1022
#> 5  2013     1     1      554            600        -6      812            837
#> 6  2013     1     1      554            558        -4      740            728
#> # ℹ 836 more rows
#> # ℹ 11 more variables: arr_delay <dbl>, carrier <chr>, flight <int>, …

# Flights that departed in January or February
flights |> 
  filter(month == 1 | month == 2)
#> # A tibble: 51,955 × 19
#>    year month   day dep_time sched_dep_time dep_delay arr_time sched_arr_time
#>   <int> <int> <int>    <int>          <int>     <dbl>    <int>          <int>
#> 1  2013     1     1      517            515         2      830            819
#> 2  2013     1     1      533            529         4      850            830
#> 3  2013     1     1      542            540         2      923            850
#> 4  2013     1     1      544            545        -1     1004           1022
#> 5  2013     1     1      554            600        -6      812            837
#> 6  2013     1     1      554            558        -4      740            728
#> # ℹ 51,949 more rows
#> # ℹ 11 more variables: arr_delay <dbl>, carrier <chr>, flight <int>, …
```

当你结合 | 和 == 时有一个有用的快捷方式：%in%。它会保留变量等于右侧值之一的行：

```R
# A shorter way to select flights that departed in January or February
flights |> 
  filter(month %in% c(1, 2))
#> # A tibble: 51,955 × 19
#>    year month   day dep_time sched_dep_time dep_delay arr_time sched_arr_time
#>   <int> <int> <int>    <int>          <int>     <dbl>    <int>          <int>
#> 1  2013     1     1      517            515         2      830            819
#> 2  2013     1     1      533            529         4      850            830
#> 3  2013     1     1      542            540         2      923            850
#> 4  2013     1     1      544            545        -1     1004           1022
#> 5  2013     1     1      554            600        -6      812            837
#> 6  2013     1     1      554            558        -4      740            728
#> # ℹ 51,949 more rows
#> # ℹ 11 more variables: arr_delay <dbl>, carrier <chr>, flight <int>, …
```
…
```R
flights |> 
  filter(month == 1 | 2)
```

在没有引发错误的意义上，这种方法“会奏效”，但不会和想象中的效一致，因为 | 首先检查 month == 1 条件，然后检查条件 2，这不是一个明智的条件。我们将在第 12.3.2 节中更详细地了解到这里发生了什么以及为什么。

### arrange()

arrange() 根据列的值更改行的顺序。它接受一个数据框和一组列名（或更复杂的表达式）进行排序。如果你提供多个列名，每个额外的列将用于在前面列的值中打破关系。例如，以下代码按出发时间排序，出发时间分布在四列中。我们首先得到最早的年份，然后是每年最早的月份等。

```R
flights |> 
  arrange(year, month, day, dep_time)
#> # A tibble: 336,776 × 19
#>    year month   day dep_time sched_dep_time dep_delay arr_time sched_arr_time
#>   <int> <int> <int>    <int>          <int>     <dbl>    <int>          <int>
#> 1  2013     1     1      517            515         2      830            819
#> 2  2013     1     1      533            529         4      850            830
#> 3  2013     1     1      542            540         2      923            850
#> 4  2013     1     1      544            545        -1     1004           1022
#> 5  2013     1     1      554            600        -6      812            837
#> 6  2013     1     1      554            558        -4      740            728
#> # ℹ 336,770 more rows
#> # ℹ 11 more variables: arr_delay <dbl>, carrier <chr>, flight <int>, …
```

你可以在 arrange() 内部的列上使用 desc() 以按降序（从大到小）重新排序数据框。例如，此代码按航班延误时间从最长到最短排序：

```R
flights |> 
  arrange(desc(dep_delay))
#> # A tibble: 336,776 × 19
#>    year month   day dep_time sched_dep_time dep_delay arr_time sched_arr_time
#>   <int> <int> <int>    <int>          <int>     <dbl>    <int>          <int>
#> 1  2013     1     9      641            900      1301     1242           1530
#> 2  2013     6    15     1432           1935      1137     1607           2120
#> 3  2013     1    10     1121           1635      1126     1239           1810
#> 4  2013     9    20     1139           1845      1014     1457           2210
#> 5  2013     7    22      845           1600      1005     1044           1815
#> 6  2013     4    10     1100           1900       960     1342           2211
#> # ℹ 336,770 more rows
#> # ℹ 11 more variables: arr_delay <dbl>, carrier <chr>, flight <int>, …
```

请注意，行数并未改变 - 我们只是排列数据，而不是过滤它。

### distinct()

`distinct()` 函数用于在数据集中找到所有唯一的行，因此从技术上讲，它主要作用于行。然而，大多数情况下，你可能希望得到某些变量的唯一组合，因此你也可以选择提供列名：

```R
# Remove duplicate rows, if any
flights |> 
  distinct()
#> # A tibble: 336,776 × 19
#>    year month   day dep_time sched_dep_time dep_delay arr_time sched_arr_time
#>   <int> <int> <int>    <int>          <int>     <dbl>    <int>          <int>
#> 1  2013     1     1      517            515         2      830            819
#> 2  2013     1     1      533            529         4      850            830
#> 3  2013     1     1      542            540         2      923            850
#> 4  2013     1     1      544            545        -1     1004           1022
#> 5  2013     1     1      554            600        -6      812            837
#> 6  2013     1     1      554            558        -4      740            728
#> # ℹ 336,770 more rows
#> # ℹ 11 more variables: arr_delay <dbl>, carrier <chr>, flight <int>, …

# Find all unique origin and destination pairs
flights |> 
  distinct(origin, dest)
#> # A tibble: 224 × 2
#>   origin dest 
#>   <chr>  <chr>
#> 1 EWR    IAH  
#> 2 LGA    IAH  
#> 3 JFK    MIA  
#> 4 JFK    BQN  
#> 5 LGA    ATL  
#> 6 EWR    ORD  
#> # ℹ 218 more rows
```

或者，如果你想在过滤唯一行时保留其他列，可以使用`.keep_all = TRUE`选项。

```R
flights |> 
  distinct(origin, dest, .keep_all = TRUE)
#> # A tibble: 224 × 19
#>    year month   day dep_time sched_dep_time dep_delay arr_time sched_arr_time
#>   <int> <int> <int>    <int>          <int>     <dbl>    <int>          <int>
#> 1  2013     1     1      517            515         2      830            819
#> 2  2013     1     1      533            529         4      850            830
#> 3  2013     1     1      542            540         2      923            850
#> 4  2013     1     1      544            545        -1     1004           1022
#> 5  2013     1     1      554            600        -6      812            837
#> 6  2013     1     1      554            558        -4      740            728
#> # ℹ 218 more rows
#> # ℹ 11 more variables: arr_delay <dbl>, carrier <chr>, flight <int>, …
```

不巧的是，所有这些不同的航班都在 1 月 1 日：`distinct()`会找到数据集中唯一行的第一次出现，并且丢弃其他行。

如果你想找出出现的次数，则最好将 `distinct()` 替换为 `count()`，并使用 `sort = TRUE` 参数将其按出现次数降序排列。你将在第 13.3 节中了解更多关于 `count()` 的内容。

```R
flights |>
  count(origin, dest, sort = TRUE)
#> # A tibble: 224 × 3
#>   origin dest      n
#>   <chr>  <chr> <int>
#> 1 JFK    LAX   11262
#> 2 LGA    ATL   10263
#> 3 LGA    ORD    8857
#> 4 JFK    SFO    8204
#> 5 LGA    CLT    6168
#> 6 EWR    ORD    6100
#> # ℹ 218 more rows
```
…
## 列

有四个重要的动词影响着列而不改变行：mutate()创建新列，这些列是从现有列派生的；select() 更改存在的列；rename() 更改列的名称；relocate() 更改列的位置。

### mutate()

mutate() 的作用是添加新的列，这些列是从现有列计算得出的。在后面的章节中，你将学习一系列函数，这些函数可以用来操作不同类型的变量。现在，我们将使用基本的代数，计算延误航班在空中弥补的时间以及以英里每小时为单位的速度：

```R
flights |> 
  mutate(
    gain = dep_delay - arr_delay,
    speed = distance / air_time * 60
  )
#> # A tibble: 336,776 × 21
#>    year month   day dep_time sched_dep_time dep_delay arr_time sched_arr_time
#>   <int> <int> <int>    <int>          <int>     <dbl>    <int>          <int>
#> 1  2013     1     1      517            515         2      830            819
#> 2  2013     1     1      533            529         4      850            830
#> 3  2013     1     1      542            540         2      923            850
#> 4  2013     1     1      544            545        -1     1004           1022
#> 5  2013     1     1      554            600        -6      812            837
#> 6  2013     1     1      554            558        -4      740            728
#> # ℹ 336,770 more rows
#> # ℹ 13 more variables: arr_delay <dbl>, carrier <chr>, flight <int>, …
```

默认情况下，mutate()会将新列添加到数据集的右侧，这样很难看到发生了什么。我们可以使用 .before 参数将变量添加到左侧：

```R
flights |> 
  mutate(
    gain = dep_delay - arr_delay,
    speed = distance / air_time * 60,
    .before = 1
  )
#> # A tibble: 336,776 × 21
#>    gain speed  year month   day dep_time sched_dep_time dep_delay arr_time
#>   <dbl> <dbl> <int> <int> <int>    <int>          <int>     <dbl>    <int>
#> 1    -9  370.  2013     1     1      517            515         2      830
#> 2   -16  374.  2013     1     1      533            529         4      850
#> 3   -31  408.  2013     1     1      542            540         2      923
#> 4    17  517.  2013     1     1      544            545        -1     1004
#> 5    19  394.  2013     1     1      554            600        -6      812
#> 6   -16  288.  2013     1     1      554            558        -4      740
#> # ℹ 336,770 more rows
#> # ℹ 12 more variables: sched_arr_time <int>, arr_delay <dbl>, …
```

默认情况下，mutate() 将新列添加到数据集的右侧，这使得很难看到正在发生的情况。我们可以使用 .before 参数将变量添加到左侧：

```R
flights |> 
  mutate(
    gain = dep_delay - arr_delay,
    speed = distance / air_time * 60,
    .before = 1
  )
#> # A tibble: 336,776 × 21
#>    gain speed  year month   day dep_time sched_dep_time dep_delay arr_time
#>   <dbl> <dbl> <int> <int> <int>    <int>          <int>     <dbl>    <int>
#> 1    -9  370.  2013     1     1      517            515         2      830
#> 2   -16  374.  2013     1     1      533            529         4      850
#> 3   -31  408.  2013     1     1      542            540         2      923
#> 4    17  517.  2013     1     1      544            545        -1     1004
#> 5    19  394.  2013     1     1      554            600        -6      812
#> 6   -16  288.  2013     1     1      554            558        -4      740
#> # ℹ 336,770 more rows
#> # ℹ 12 more variables: sched_arr_time <int>, arr_delay <dbl>, …
```
…
在 select() 中，你可以使用一些辅助函数：

- starts_with("abc")：匹配以 "abc" 开头的名称。
- ends_with("xyz")：匹配以 "xyz" 结尾的名称。
- contains("ijk")：匹配包含 "ijk" 的名称。
- num_range("x", 1:3)：匹配 x1、x2 和 x3。

有关更多详细信息，请参阅 ?select。一旦你了解了正则表达式（第 15 章的主题），你还可以使用 matches() 来选择与模式匹配的变量。

你可以在选择变量时重命名它们，方法是使用 =。新名称出现在 = 的左侧，旧变量出现在右侧：

```r
flights |> 
  select(tail_num = tailnum)
#> # A tibble: 336,776 × 1
#>   tail_num
#>   <chr>   
#> 1 N14228  
#> 2 N24211  
#> 3 N619AA  
#> 4 N804JB  
#> 5 N668DN  
#> 6 N39463  
#> # ℹ 336,770 more rows
```

### rename() 
如果你想保留所有现有变量，只想重命名其中几个，你可以使用 rename() 而不是 select()：

```R
flights |> 
  rename(tail_num = tailnum)
#> # A tibble: 336,776 × 19
#>    year month   day dep_time sched_dep_time dep_delay arr_time sched_arr_time
#>   <int> <int> <int>    <int>          <int>     <dbl>    <int>          <int>
#> 1  2013     1     1      517            515         2      830            819
#> 2  2013     1     1      533            529         4      850            830
#> 3  2013     1     1      542            540         2      923            850
#> 4  2013     1     1      544            545        -1     1004           1022
#> 5  2013     1     1      554            600        -6      812            837
#> 6  2013     1     1      554            558        -4      740            728
#> # ℹ 336,770 more rows
#> # ℹ 11 more variables: arr_delay <dbl>, carrier <chr>, flight <int>, …
```

如果你有一堆不一致命名的列，手动修复它们可能会很痛苦，可以尝试使用 janitor::clean_names()，它提供了一些有用的自动清理功能。

### relocate() 
使用 relocate() 来移动变量。你可能希望将相关变量放在一起或将重要变量移动到前面。默认情况下，relocate() 将变量移动到前面：

```R
flights |> 
  relocate(time_hour, air_time)
#> # A tibble: 336,776 × 19
#>   time_hour           air_time  year month   day dep_time sched_dep_time
#>   <dttm>                 <dbl> <int> <int> <int>    <int>          <int>
#> 1 2013-01-01 05:00:00      227  2013     1     1      517            515
#> 2 2013-01-01 05:00:00      227  2013     1     1      533            529
#> 3 2013-01-01 05:00:00      160  2013     1     1      542            540
#> 4 2013-01-01 05:00:00      183  2013     1     1      544            545
#> 5 2013-01-01 06:00:00      116  2013     1     1      554            600
#> 6 2013-01-01 05:00:00      150  2013     1     1      554            558
#> # ℹ 336,770 more rows
#> # ℹ 12 more variables: dep_delay <dbl>, arr_time <int>, …
```
…
## 管道

我们已经展示了管道的简单示例，但它的真正威力在于开始组合多个动词。例如，想象一下，你想要找到飞往休斯顿IAH机场的最快航班：你需要组合使用filter()、mutate()、select()和arrange()：

```R
flights |> 
  filter(dest == "IAH") |> 
  mutate(speed = distance / air_time * 60) |> 
  select(year:day, dep_time, carrier, flight, speed) |> 
  arrange(desc(speed))
#> # A tibble: 7,198 × 7
#>    year month   day dep_time carrier flight speed
#>   <int> <int> <int>    <int> <chr>    <int> <dbl>
#> 1  2013     7     9      707 UA         226  522.
#> 2  2013     8    27     1850 UA        1128  521.
#> 3  2013     8    28      902 UA        1711  519.
#> 4  2013     8    28     2122 UA        1022  519.
#> 5  2013     6    11     1628 UA        1178  515.
#> 6  2013     8    27     1017 UA         333  515.
#> # ℹ 7,192 more rows
```
…
  > 对于简单情况，|> 和 %>% 的行为是相同的。那么为什么我们推荐使用基础管道操作符呢？首先，因为它是基础 R 的一部分，所以你始终可以使用它，即使你没有使用 tidyverse 也可以。其次，|> 比 %>% 简单得多：在 %>% 于2014年问世以及 |>(R 4.1.0 于2021年被引入)之间的时间里，我们对管道操作符有了更好的理解。这使得基础实现能够摒弃不常用和不太重要的功能。

## groups

到目前为止，你已经学习了如何使用处理行和列的函数。当你加入能够处理分组的功能时，dplyr 变得更加强大。在本节中，我们将重点介绍最重要的函数：group_by()、summarize()，以及切片函数系列。

### group_by() 

使用 group_by() 将数据集分成对你的分析有意义的组：

```R
flights |> 
  group_by(month)
#> # A tibble: 336,776 × 19
#> # Groups:   month [12]
#>    year month   day dep_time sched_dep_time dep_delay arr_time sched_arr_time
#>   <int> <int> <int>    <int>          <int>     <dbl>    <int>          <int>
#> 1  2013     1     1      517            515         2      830            819
#> 2  2013     1     1      533            529         4      850            830
#> 3  2013     1     1      542            540         2      923            850
#> 4  2013     1     1      544            545        -1     1004           1022
#> 5  2013     1     1      554            600        -6      812            837
#> 6  2013     1     1      554            558        -4      740            728
#> # ℹ 336,770 more rows
#> # ℹ 11 more variables: arr_delay <dbl>, carrier <chr>, flight <int>, …
```

group_by() 不会改变数据，但是如果你仔细观察输出，你会注意到输出表明它是“按月分组的”（Groups: month [12]）。这意味着后续的操作现在将“按月份”进行。group_by() 将这个分组特性（称为类）添加到数据框中，这会改变应用于数据的后续动词的行为。

### summarize() 

最重要的分组操作之一是汇总，如果用于计算单个汇总统计量，则将数据框减少为每个组的单个行。在 dplyr 中，这个操作由 summarize() 执行，如下例所示，计算了每月的平均出发延误时间：

```r
flights |> 
  group_by(month) |> 
  summarize(
    avg_delay = mean(dep_delay)
  )
#> # A tibble: 12 × 2
#>   month avg_delay
#>   <int>     <dbl>
#> 1     1        NA
#> 2     2        NA
#> 3     3        NA
#> 4     4        NA
#> 5     5        NA
#> 6     6        NA
#> # ℹ 6 more rows
```

哎呀！出了些问题，我们所有的结果都是 NA（发音为“N-A”），在 R 中表示缺失值的符号。这是因为观察到的一些航班在延误列中有缺失数据，因此当我们计算平均值时，包括这些值，我们得到一个 NA 的结果。我们将在第 18 章详细讨论缺失值，但现在我们告诉 mean() 函数忽略所有缺失值，将参数 na.rm 设置为 TRUE：

```R
flights |> 
  group_by(month) |> 
  summarize(
    avg_delay = mean(dep_delay, na.rm = TRUE)
  )
#> # A tibble: 12 × 2
#>   month avg_delay
#>   <int>     <dbl>
#> 1     1      10.0
#> 2     2      10.8
#> 3     3      13.2
#> 4     4      13.9
#> 5     5      13.0
#> 6     6      20.8
#> # ℹ 6 more rows
```

你可以在单个 summarize() 调用中创建任意数量的汇总。你将在即将到来的章节中学习各种有用的汇总，但一个非常有用的汇总是 n()，它返回每个组中的行数：

```R
flights |> 
  group_by(month) |> 
  summarize(
    avg_delay = mean(dep_delay, na.rm = TRUE), 
    n = n()
  )
#> # A tibble: 12 × 3
#>   month avg_delay     n
#>   <int>     <dbl> <int>
#> 1     1      10.0 27004
#> 2     2      10.8 24951
#> 3     3      13.2 28834
#> 4     4      13.9 28330
#> 5     5      13.0 28796
#> 6     6      20.8 28243
#> # ℹ 6 more rows
```
…
- df |> slice_head(n = 1) 从每个组中取出第一行。
- df |> slice_tail(n = 1) 从每个组中取出最后一行。
- df |> slice_min(x, n = 1) 取出列 x 的最小值所在的行。
- df |> slice_max(x, n = 1) 取出列 x 的最大值所在的行。
- df |> slice_sample(n = 1) 随机选择一行。

你可以改变 n 来选择多于一行，或者使用 prop = 0.1 来选择（例如）每个组中的 10％ 行。例如，以下代码找到了每个目的地最延误到达的航班：

```R
flights |> 
  group_by(dest) |> 
  slice_max(arr_delay, n = 1) |>
  relocate(dest)
#> # A tibble: 108 × 19
#> # Groups:   dest [105]
#>   dest   year month   day dep_time sched_dep_time dep_delay arr_time
#>   <chr> <int> <int> <int>    <int>          <int>     <dbl>    <int>
#> 1 ABQ    2013     7    22     2145           2007        98      132
#> 2 ACK    2013     7    23     1139            800       219     1250
#> 3 ALB    2013     1    25      123           2000       323      229
#> 4 ANC    2013     8    17     1740           1625        75     2042
#> 5 ATL    2013     7    22     2257            759       898      121
#> 6 AUS    2013     7    10     2056           1505       351     2347
#> # ℹ 102 more rows
#> # ℹ 11 more variables: sched_arr_time <int>, arr_delay <dbl>, …
```
…
